C51 COMPILER V9.52.0.0   ADDTOREG51                                                        07/13/2014 13:11:20 PAGE 1   


C51 COMPILER V9.52.0.0, COMPILATION OF MODULE ADDTOREG51
OBJECT MODULE PLACED IN addtoREG51.OBJ
COMPILER INVOKED BY: C:\Keil\C51\BIN\C51.EXE addtoREG51.c BROWSE DEBUG OBJECTEXTEND TABS(2)

line level    source

   1          #include<reg51.h>
   2          void delay1(unsigned int n)
   3          {
   4   1        unsigned int i;
   5   1        TMOD = 0x10;
   6   1        for(i=0;i<n;i++)
   7   1        {
   8   2          TH1 = 0xFC;
   9   2          TL1 = 0x18;
  10   2          TR1 = 1;
  11   2          while(TF1==0);
  12   2          TF1 = 0;
  13   2          TR1 = 0;
  14   2        }
  15   1      }
  16          
  17          void main()
  18          {
  19   1        while(1)
  20   1        {
  21   2        P1 = 0xFF;
  22   2        delay1(1000);
  23   2        P1 = 0x00;
  24   2        delay1(1000);
  25   2        }
  26   1      }


MODULE INFORMATION:   STATIC OVERLAYABLE
   CODE SIZE        =     86    ----
   CONSTANT SIZE    =   ----    ----
   XDATA SIZE       =   ----    ----
   PDATA SIZE       =   ----    ----
   DATA SIZE        =   ----    ----
   IDATA SIZE       =   ----    ----
   BIT SIZE         =   ----    ----
END OF MODULE INFORMATION.


C51 COMPILATION COMPLETE.  0 WARNING(S),  0 ERROR(S)
