:10080000E4FDFCC3ED9FEC9E5015E4FBFA0BBB002E
:0F081000010ABA04F8BBFBF50DBD00010C80E432
:01081F0022B6
:0E082000A290309101B34003C2A022D2A022C8
:0300000002082EC5
:0C082E00787FE4F6D8FD758107020820F1
:00000001FF
