C51 COMPILER V9.52.0.0   MULTIPLEXING7SEG                                                  07/16/2014 11:44:38 PAGE 1   


C51 COMPILER V9.52.0.0, COMPILATION OF MODULE MULTIPLEXING7SEG
OBJECT MODULE PLACED IN multiplexing7Seg.OBJ
COMPILER INVOKED BY: C:\Keil\C51\BIN\C51.EXE multiplexing7Seg.c BROWSE DEBUG OBJECTEXTEND TABS(2)

line level    source

   1          #include<reg51.h>
   2          sbit p1 = P1^0;
   3          sbit p2 = P1^1;
   4          void main()
   5          {
   6   1            unsigned int i,j,z = 56;
   7   1            unsigned char num1[] = {0x3F,0x06,0x5B,0x4F,0x66,0x6D,0x7D,0x07,0x7F,0x6F};
   8   1      unsigned char num2[] = {0x06,0x5B,0x4F,0x66,0x6D,0x7D,0x07,0x7F,0x6F,0x3F};
   9   1            for(i=0;i<10;i++)
  10   1            {
  11   2              for(j=0;j<10;j++)
  12   2              {
  13   3                    p1 = 0;
  14   3                    p2 = 1;
  15   3                    P2 = num1[i];
  16   3                    delay(z);
  17   3                    p1 = 1;
  18   3                    p2 = 0;
  19   3                    P2 = num2[j];
  20   3                    delay(z);
  21   3              }
  22   2            }
  23   1          }


MODULE INFORMATION:   STATIC OVERLAYABLE
   CODE SIZE        =    420    ----
   CONSTANT SIZE    =     20    ----
   XDATA SIZE       =   ----    ----
   PDATA SIZE       =   ----    ----
   DATA SIZE        =   ----      38
   IDATA SIZE       =   ----    ----
   BIT SIZE         =   ----    ----
END OF MODULE INFORMATION.


C51 COMPILATION COMPLETE.  0 WARNING(S),  0 ERROR(S)
