C51 COMPILER V9.52.0.0   MULTIPLEXING7SEG_4_                                               07/16/2014 11:32:53 PAGE 1   


C51 COMPILER V9.52.0.0, COMPILATION OF MODULE MULTIPLEXING7SEG_4_
OBJECT MODULE PLACED IN multiplexing7Seg(4).OBJ
COMPILER INVOKED BY: C:\Keil\C51\BIN\C51.EXE multiplexing7Seg(4).c BROWSE DEBUG OBJECTEXTEND TABS(2)

line level    source

   1          #include<reg51.h>
   2          sbit p1 = P1^2;
   3          sbit p2 = P1^3;
   4          sbit p3 = P1^4;
   5          sbit p4 = P1^5;
   6          void main()
   7          {
   8   1            unsigned int i,j,k,l,z = 50;
   9   1            unsigned char num1[] = {0x3F,0x06,0x5B,0x4F,0x66,0x6D,0x7D,0x07,0x7F,0x6F};
  10   1      unsigned char num2[] = {0x06,0x5B,0x4F,0x66,0x6D,0x7D,0x07,0x7F,0x6F,0x3F};
  11   1            for(i=0;i<10;i++)
  12   1            {
  13   2              for(j=0;j<10;j++)
  14   2              {
  15   3                for(k=0;k<10;k++)
  16   3                {
  17   4                  for(l=0;l<10;l++)
  18   4                  {
  19   5                    p1 = 0;
  20   5                    p2 = 1;
  21   5                    p3 = 1;
  22   5                    p4 = 1;
  23   5                    P3 = num1[i];
  24   5                    delay(z);
  25   5                    p1 = 1;
  26   5                    p2 = 0;
  27   5                    p3 = 1;
  28   5                    p4 = 1;
  29   5                    P3 = num1[j];
  30   5                    delay(z);
  31   5                    p1 = 1;
  32   5                    p2 = 1;
  33   5                    p3 = 0;
  34   5                    p4 = 1;
  35   5                    P3 = num1[k];
  36   5                    delay(z);
  37   5                    p1 = 1;
  38   5                    p2 = 1;
  39   5                    p3 = 1;
  40   5                    p4 = 0;
  41   5                    P3 = num1[l];
  42   5                    delay(z);
  43   5              }
  44   4            }
  45   3          }
  46   2        }
  47   1      }
  48              


MODULE INFORMATION:   STATIC OVERLAYABLE
   CODE SIZE        =    502    ----
   CONSTANT SIZE    =     20    ----
   XDATA SIZE       =   ----    ----
   PDATA SIZE       =   ----    ----
C51 COMPILER V9.52.0.0   MULTIPLEXING7SEG_4_                                               07/16/2014 11:32:53 PAGE 2   

   DATA SIZE        =   ----      42
   IDATA SIZE       =   ----    ----
   BIT SIZE         =   ----    ----
END OF MODULE INFORMATION.


C51 COMPILATION COMPLETE.  0 WARNING(S),  0 ERROR(S)
